%YAML 1.1
%TAG !u! tag:unity3d.com,2011:
--- !u!21 &2100000
Material:
  serializedVersion: 6
  m_ObjectHideFlags: 0
  m_CorrespondingSourceObject: {fileID: 0}
  m_PrefabInstance: {fileID: 0}
  m_PrefabAsset: {fileID: 0}
  m_Name: Clouds Material
  m_Shader: {fileID: 4800000, guid: 077c2a43fef912840a1caad2c34668b9, type: 3}
  m_ShaderKeywords: _ALPHABLEND_ON _BLENDMODE_ALPHA _DISABLE_DBUFFER _DISABLE_DECALS
    _EMISSION _ENABLE_FOG_ON_TRANSPARENT _FADING_ON _NORMALMAP_TANGENT_SPACE _PROCEDURALSNOW
    _REFRACTION_SSRAY_PROXY _SURFACE_TYPE_TRANSPARENT
  m_LightmapFlags: 0
  m_EnableInstancingVariants: 1
  m_DoubleSidedGI: 0
  m_CustomRenderQueue: 3000
  stringTagMap:
    RenderType: Transparent
  disabledShaderPasses:
  - DistortionVectors
  - MOTIONVECTORS
  - TransparentDepthPrepass
  - TransparentDepthPostpass
  - TransparentBackface
  - ALWAYS
  m_SavedProperties:
    serializedVersion: 3
    m_TexEnvs:
    - _AlphaTex:
        m_Texture: {fileID: 0}
        m_Scale: {x: 1, y: 1}
        m_Offset: {x: 0, y: 0}
    - _AmbientOcclusionMap:
        m_Texture: {fileID: 0}
        m_Scale: {x: 1, y: 1}
        m_Offset: {x: 0, y: 0}
    - _AnisotropyMap:
        m_Texture: {fileID: 0}
        m_Scale: {x: 1, y: 1}
        m_Offset: {x: 0, y: 0}
    - _BaseColorMap:
        m_Texture: {fileID: 2800000, guid: 030b3679dd467a240948deef97429a27, type: 3}
        m_Scale: {x: 1, y: 1}
        m_Offset: {x: 0, y: 0}
    - _BentNormalMap:
        m_Texture: {fileID: 0}
        m_Scale: {x: 1, y: 1}
        m_Offset: {x: 0, y: 0}
    - _BentNormalMapOS:
        m_Texture: {fileID: 0}
        m_Scale: {x: 1, y: 1}
        m_Offset: {x: 0, y: 0}
    - _BumpMap:
        m_Texture: {fileID: 0}
        m_Scale: {x: 1, y: 1}
        m_Offset: {x: 0, y: 0}
    - _BumpTex:
        m_Texture: {fileID: 0}
        m_Scale: {x: 1, y: 1}
        m_Offset: {x: 0, y: 0}
    - _CarPaint2_BRDFColorMap:
        m_Texture: {fileID: 0}
        m_Scale: {x: 1, y: 1}
        m_Offset: {x: 0, y: 0}
    - _CarPaint2_BTFFlakeMap:
        m_Texture: {fileID: 0}
        m_Scale: {x: 1, y: 1}
        m_Offset: {x: 0, y: 0}
    - _CarPaint2_FlakeThetaFISliceLUTMap:
        m_Texture: {fileID: 0}
        m_Scale: {x: 1, y: 1}
        m_Offset: {x: 0, y: 0}
    - _ClearcoatNormalMap:
        m_Texture: {fileID: 0}
        m_Scale: {x: 1, y: 1}
        m_Offset: {x: 0, y: 0}
    - _CoatMaskMap:
        m_Texture: {fileID: 0}
        m_Scale: {x: 1, y: 1}
        m_Offset: {x: 0, y: 0}
    - _CoatNormalMap:
        m_Texture: {fileID: 0}
        m_Scale: {x: 1, y: 1}
        m_Offset: {x: 0, y: 0}
    - _CoatSmoothnessMap:
        m_Texture: {fileID: 0}
        m_Scale: {x: 1, y: 1}
        m_Offset: {x: 0, y: 0}
    - _DetailAlbedoMap:
        m_Texture: {fileID: 0}
        m_Scale: {x: 1, y: 1}
        m_Offset: {x: 0, y: 0}
    - _DetailMap:
        m_Texture: {fileID: 0}
        m_Scale: {x: 1, y: 1}
        m_Offset: {x: 0, y: 0}
    - _DetailMask:
        m_Texture: {fileID: 0}
        m_Scale: {x: 1, y: 1}
        m_Offset: {x: 0, y: 0}
    - _DetailMaskMap:
        m_Texture: {fileID: 0}
        m_Scale: {x: 1, y: 1}
        m_Offset: {x: 0, y: 0}
    - _DetailNormalMap:
        m_Texture: {fileID: 0}
        m_Scale: {x: 1, y: 1}
        m_Offset: {x: 0, y: 0}
    - _DetailSmoothnessMap:
        m_Texture: {fileID: 0}
        m_Scale: {x: 1, y: 1}
        m_Offset: {x: 0, y: 0}
    - _DistortionVectorMap:
        m_Texture: {fileID: 2800000, guid: 9dca09c5b2ba16644b3518a6b74582ab, type: 3}
        m_Scale: {x: 1, y: 1}
        m_Offset: {x: 0, y: 0}
    - _EdgeLit:
        m_Texture: {fileID: 8400000, guid: 89cf594ad528852419e0fa3433f1b05d, type: 2}
        m_Scale: {x: 1, y: 1}
        m_Offset: {x: 0, y: 0}
    - _EmissionMap:
        m_Texture: {fileID: 0}
        m_Scale: {x: 1, y: 1}
        m_Offset: {x: 0, y: 0}
    - _EmissiveColorMap:
        m_Texture: {fileID: 0}
        m_Scale: {x: 1, y: 1}
        m_Offset: {x: 0, y: 0}
    - _FalloffTex:
        m_Texture: {fileID: 0}
        m_Scale: {x: 1, y: 1}
        m_Offset: {x: 0, y: 0}
    - _FlareTexture:
        m_Texture: {fileID: 0}
        m_Scale: {x: 1, y: 1}
        m_Offset: {x: 0, y: 0}
    - _FuzzDetailMap:
        m_Texture: {fileID: 0}
        m_Scale: {x: 1, y: 1}
        m_Offset: {x: 0, y: 0}
    - _HeightMap:
        m_Texture: {fileID: 0}
        m_Scale: {x: 1, y: 1}
        m_Offset: {x: 0, y: 0}
    - _IridescenceMaskMap:
        m_Texture: {fileID: 0}
        m_Scale: {x: 1, y: 1}
        m_Offset: {x: 0, y: 0}
    - _IridescenceThicknessMap:
        m_Texture: {fileID: 0}
        m_Scale: {x: 1, y: 1}
        m_Offset: {x: 0, y: 0}
    - _LayerBump:
        m_Texture: {fileID: 0}
        m_Scale: {x: 1, y: 1}
        m_Offset: {x: 0, y: 0}
    - _LayerTex:
        m_Texture: {fileID: 0}
        m_Scale: {x: 1, y: 1}
        m_Offset: {x: 0, y: 0}
    - _MainBump:
        m_Texture: {fileID: 0}
        m_Scale: {x: 1, y: 1}
        m_Offset: {x: 0, y: 0}
    - _MainTex:
        m_Texture: {fileID: 2800000, guid: 030b3679dd467a240948deef97429a27, type: 3}
        m_Scale: {x: 1, y: 1}
        m_Offset: {x: 0, y: 0}
    - _MaskMap:
        m_Texture: {fileID: 0}
        m_Scale: {x: 1, y: 1}
        m_Offset: {x: 0, y: 0}
    - _MetallicGlossMap:
        m_Texture: {fileID: 0}
        m_Scale: {x: 1, y: 1}
        m_Offset: {x: 0, y: 0}
    - _MetallicMap:
        m_Texture: {fileID: 0}
        m_Scale: {x: 1, y: 1}
        m_Offset: {x: 0, y: 0}
    - _NormalMap:
        m_Texture: {fileID: 0}
        m_Scale: {x: 1, y: 1}
        m_Offset: {x: 0, y: 0}
    - _NormalMapOS:
        m_Texture: {fileID: 0}
        m_Scale: {x: 1, y: 1}
        m_Offset: {x: 0, y: 0}
    - _NormalTex:
        m_Texture: {fileID: 0}
        m_Scale: {x: 1, y: 1}
        m_Offset: {x: 0, y: 0}
    - _OcclusionMap:
        m_Texture: {fileID: 0}
        m_Scale: {x: 1, y: 1}
        m_Offset: {x: 0, y: 0}
    - _ParallaxMap:
        m_Texture: {fileID: 0}
        m_Scale: {x: 1, y: 1}
        m_Offset: {x: 0, y: 0}
    - _SVBRDF_AlphaMap:
        m_Texture: {fileID: 0}
        m_Scale: {x: 1, y: 1}
        m_Offset: {x: 0, y: 0}
    - _SVBRDF_AnisoRotationMap:
        m_Texture: {fileID: 0}
        m_Scale: {x: 1, y: 1}
        m_Offset: {x: 0, y: 0}
    - _SVBRDF_ClearcoatColorMap:
        m_Texture: {fileID: 0}
        m_Scale: {x: 1, y: 1}
        m_Offset: {x: 0, y: 0}
    - _SVBRDF_ClearcoatIORMap:
        m_Texture: {fileID: 0}
        m_Scale: {x: 1, y: 1}
        m_Offset: {x: 0, y: 0}
    - _SVBRDF_DiffuseColorMap:
        m_Texture: {fileID: 0}
        m_Scale: {x: 1, y: 1}
        m_Offset: {x: 0, y: 0}
    - _SVBRDF_FresnelMap:
        m_Texture: {fileID: 0}
        m_Scale: {x: 1, y: 1}
        m_Offset: {x: 0, y: 0}
    - _SVBRDF_HeightMap:
        m_Texture: {fileID: 0}
        m_Scale: {x: 1, y: 1}
        m_Offset: {x: 0, y: 0}
    - _SVBRDF_NormalMap:
        m_Texture: {fileID: 0}
        m_Scale: {x: 1, y: 1}
        m_Offset: {x: 0, y: 0}
    - _SVBRDF_SpecularColorMap:
        m_Texture: {fileID: 0}
        m_Scale: {x: 1, y: 1}
        m_Offset: {x: 0, y: 0}
    - _SVBRDF_SpecularLobeMap:
        m_Texture: {fileID: 0}
        m_Scale: {x: 1, y: 1}
        m_Offset: {x: 0, y: 0}
    - _ShadowTex:
        m_Texture: {fileID: 0}
        m_Scale: {x: 1, y: 1}
        m_Offset: {x: 0, y: 0}
    - _SmoothnessAMap:
        m_Texture: {fileID: 0}
        m_Scale: {x: 1, y: 1}
        m_Offset: {x: 0, y: 0}
    - _SmoothnessBMap:
        m_Texture: {fileID: 0}
        m_Scale: {x: 1, y: 1}
        m_Offset: {x: 0, y: 0}
    - _SpecGlossMap:
        m_Texture: {fileID: 0}
        m_Scale: {x: 1, y: 1}
        m_Offset: {x: 0, y: 0}
    - _SpecularColorMap:
        m_Texture: {fileID: 0}
        m_Scale: {x: 1, y: 1}
        m_Offset: {x: 0, y: 0}
    - _SubsurfaceMaskMap:
        m_Texture: {fileID: 0}
        m_Scale: {x: 1, y: 1}
        m_Offset: {x: 0, y: 0}
    - _TangentMap:
        m_Texture: {fileID: 0}
        m_Scale: {x: 1, y: 1}
        m_Offset: {x: 0, y: 0}
    - _TangentMapOS:
        m_Texture: {fileID: 0}
        m_Scale: {x: 1, y: 1}
        m_Offset: {x: 0, y: 0}
    - _ThicknessMap:
        m_Texture: {fileID: 0}
        m_Scale: {x: 1, y: 1}
        m_Offset: {x: 0, y: 0}
    - _ThreadMap:
        m_Texture: {fileID: 0}
        m_Scale: {x: 1, y: 1}
        m_Offset: {x: 0, y: 0}
    - _TransmittanceColorMap:
        m_Texture: {fileID: 0}
        m_Scale: {x: 1, y: 1}
        m_Offset: {x: 0, y: 0}
    - _WindFlutterMap:
        m_Texture: {fileID: 0}
        m_Scale: {x: 1, y: 1}
        m_Offset: {x: 0, y: 0}
    m_Ints: []
    m_Floats:
    - PixelSnap: 0
    - _AORemapMax: 1
    - _AORemapMin: 0
    - _ATDistance: 1
    - _AlbedoAffectEmissive: 0
    - _AlphaCutoff: 0.01
    - _AlphaCutoffEnable: 1
    - _AlphaCutoffPostpass: 0.5
    - _AlphaCutoffPrepass: 0.5
    - _AmbientOcclusion: 1
    - _AmbientOcclusionMapChannel: 0
    - _AmbientOcclusionMapShow: 0
    - _AmbientOcclusionMapUV: 0
    - _AmbientOcclusionMapUVLocal: 0
    - _AmbientOcclusionUseMap: 0
    - _Anisotropy: 0
    - _AnisotropyMapChannel: 0
    - _AnisotropyMapUV: 0
    - _AnisotropyMapUVLocal: 0
    - _AnisotropyShow: 0
    - _AnisotropyUseMap: 0
    - _AxF_BRDFType: 0
    - _BaseColorMapShow: 0
    - _BaseColorMapUV: 0
    - _BaseColorMapUVLocal: 0
    - _BlendMode: 0
    - _BlendOp: 0
    - _BumpScale: 0
    - _CameraFadingEnabled: 1
    - _CameraFarFadeDistance: 5
    - _CameraNearFadeDistance: 2
    - _CarPaint2_BRDFColorMapScale: 1
    - _CarPaint2_BTFFlakeMapScale: 1
    - _CarPaint2_CTDiffuse: 0
    - _CarPaint2_ClearcoatIOR: 1
    - _CarPaint2_FlakeMaxThetaI: 0
    - _CarPaint2_FlakeNumThetaF: 0
    - _CarPaint2_FlakeNumThetaI: 0
    - _CarPaint2_FlakeTiling: 1
    - _CarPaint2_LobeCount: 0
    - _CoatIor: 1.5
    - _CoatMask: 0
    - _CoatNormalMapObjSpace: 0
    - _CoatNormalMapShow: 0
    - _CoatNormalMapUV: 0
    - _CoatNormalMapUVLocal: 0
    - _CoatNormalScale: 1
    - _CoatShow: 0
    - _CoatSmoothness: 1
    - _CoatSmoothnessMapChannel: 0
    - _CoatSmoothnessMapRemapInverted: 0
    - _CoatSmoothnessMapShow: 0
    - _CoatSmoothnessMapUV: 0
    - _CoatSmoothnessMapUVLocal: 0
    - _CoatSmoothnessUseMap: 0
    - _CoatThickness: 0
    - _ColorMode: 0
    - _Cull: 2
    - _CullMode: 2
    - _CullModeForward: 2
    - _Cutoff: 0.01
    - _DebugEnable: 0
    - _DebugShow: 0
    - _DecalBlend: 0.5
    - _DepthOffsetEnable: 0
    - _DetailAlbedoScale: 1
    - _DetailMaskMapChannel: 0
    - _DetailMaskMapShow: 0
    - _DetailMaskMapUV: 0
    - _DetailMaskMapUVLocal: 0
    - _DetailMode: 0
    - _DetailNormalMapScale: 1
    - _DetailNormalMapShow: 0
    - _DetailNormalMapUV: 0
    - _DetailNormalMapUVLocal: 0
    - _DetailNormalScale: 1
    - _DetailSmoothnessMapChannel: 0
    - _DetailSmoothnessMapRemapInverted: 0
    - _DetailSmoothnessMapShow: 0
    - _DetailSmoothnessMapUV: 0
    - _DetailSmoothnessMapUVLocal: 0
    - _DetailSmoothnessScale: 1
    - _DetailsShow: 0
    - _DielectricIor: 1.5
    - _DiffusionProfile: 0
    - _DisplacementLockObjectScale: 1
    - _DisplacementLockTilingScale: 1
    - _DisplacementMode: 0
    - _DistortionBlend: 1
    - _DistortionBlendMode: 0
    - _DistortionBlurBlendMode: 0
    - _DistortionBlurDstBlend: 1
    - _DistortionBlurRemapMax: 0.27447402
    - _DistortionBlurRemapMin: 0
    - _DistortionBlurScale: 1
    - _DistortionBlurSrcBlend: 1
    - _DistortionDepthTest: 1
    - _DistortionDstBlend: 1
    - _DistortionEnable: 0
    - _DistortionEnabled: 0
    - _DistortionOnly: 0
    - _DistortionScale: 1
    - _DistortionSrcBlend: 1
    - _DistortionStrength: 1
    - _DistortionStrengthScaled: 0.1
    - _DistortionVectorBias: -1
    - _DistortionVectorScale: 2
    - _DoubleSidedEnable: 0
    - _DoubleSidedNormalMode: 1
    - _Drag: 1
    - _DstBlend: 10
    - _DualSpecularLobeShow: 0
    - _EdgeIntensity: 1.6904731
    - _EditorExpendedAreas: 4e-45
    - _EmissionEnabled: 1
    - _EmissiveColorMapShow: 0
    - _EmissiveColorMapUV: 0
    - _EmissiveColorMapUVLocal: 0
    - _EmissiveColorMode: 1
    - _EmissiveShow: 0
    - _EnableAnisotropy: 0
    - _EnableBlendModePreserveSpecularLighting: 0
    - _EnableCoat: 0
    - _EnableCoatNormalMap: 0
    - _EnableDetails: 0
    - _EnableDualSpecularLobe: 0
    - _EnableExternalAlpha: 0
    - _EnableFogOnTransparent: 1
    - _EnableGeometricSpecularAA: 0
    - _EnableIridescence: 0
    - _EnableMotionVectorForVertexAnimation: 0
    - _EnableSpecularOcclusion: 0
    - _EnableSubsurfaceScattering: 0
    - _EnableTransmission: 0
    - _EnableWind: 0
    - _EnergyConservingSpecularColor: 1
    - _FabricType: 0
    - _FadingDistance: 12000
    - _Flags: 0
    - _FlipbookMode: 0
    - _FuzzDetailScale: 0
    - _FuzzDetailUVScale: 0.25
    - _GeometricNormalFilteringEnabled: 0
    - _GlossMapScale: 1
    - _Glossiness: 0.33
    - _GlossyReflections: 1
    - _HdrpVersion: 1
    - _HeightAmplitude: 0.02
    - _HeightCenter: 0.5
    - _HeightMapParametrization: 0
    - _HeightMax: 1
    - _HeightMin: -1
    - _HeightOffset: 0
    - _HeightPoMAmplitude: 2
    - _HeightTessAmplitude: 2
    - _HeightTessCenter: 0.5
    - _InitialBend: 1
    - _InvFade: 0.01
    - _InvTilingScale: 1
    - _Ior: 1
    - _IridescenceIor: 1.5
    - _IridescenceMask: 1
    - _IridescenceMaskMapChannel: 0
    - _IridescenceMaskMapShow: 0
    - _IridescenceMaskMapUV: 0
    - _IridescenceMaskMapUVLocal: 0
    - _IridescenceMaskUseMap: 0
    - _IridescenceShow: 0
    - _IridescenceThickness: 1
    - _IridescenceThicknessMapChannel: 0
    - _IridescenceThicknessMapLocal: 0
    - _IridescenceThicknessMapRemapInverted: 0
    - _IridescenceThicknessMapShow: 0
    - _IridescenceThicknessMapUV: 0
    - _IridescenceThicknessUseMap: 0
    - _LayerDepth: 0.0005
    - _LayerStrength: 0
    - _LightingEnabled: 1
    - _LinkDetailsWithBase: 1
    - _LobeMix: 0
    - _MaterialFeaturesShow: 0
    - _MaterialID: 1
    - _MaterialTilingU: 1
    - _MaterialTilingV: 1
    - _Metallic: 0.467
    - _MetallicMapChannel: 0
    - _MetallicMapShow: 0
    - _MetallicMapUV: 0
    - _MetallicMapUVLocal: 0
    - _MetallicUseMap: 0
    - _Mode: 2
    - _NormalMapObjSpace: 0
    - _NormalMapShow: 0
    - _NormalMapSpace: 0
    - _NormalMapUV: 0
    - _NormalMapUVLocal: 0
    - _NormalScale: 1
    - _OcclusionStrength: 1
    - _Opacity: 1
    - _PPDLodThreshold: 5
    - _PPDMaxSamples: 15
    - _PPDMinSamples: 5
    - _PPDPrimitiveLength: 1
    - _PPDPrimitiveWidth: 1
    - _Parallax: 0.02
    - _Power: 2
    - _PreRefractionPass: 0
    - _ReceivesSSR: 1
    - _RefractionModel: 0
    - _SSRefractionProjectionModel: 1
    - _SSSShow: 0
    - _SVBRDF_BRDFType: 0
    - _SVBRDF_BRDFVariants: 0
    - _SVBRDF_HeightMapMaxMM: 0
    - _SVBRDF_SpecularLobeMapScale: 1
    - _ScaleX: 1
    - _ScaleY: 1
    - _ShadowIntensity: 0.6
    - _ShadowStrength: 1
    - _ShiverDirectionality: 0.5
    - _ShiverDrag: 0.2
    - _Smoothness: 0.33
    - _SmoothnessA: 1
    - _SmoothnessAMapChannel: 0
    - _SmoothnessAMapRemapInverted: 0
    - _SmoothnessAMapShow: 0
    - _SmoothnessAMapUV: 0
    - _SmoothnessAMapUVLocal: 0
    - _SmoothnessAUseMap: 0
    - _SmoothnessB: 1
    - _SmoothnessBMapChannel: 0
    - _SmoothnessBMapRemapInverted: 0
    - _SmoothnessBMapShow: 0
    - _SmoothnessBMapUV: 0
    - _SmoothnessBUseMap: 0
    - _SmoothnessRemapMax: 1
    - _SmoothnessRemapMin: 0
    - _SmoothnessTextureChannel: 0
    - _SmoothnessViewAngleOffset: 0.33
    - _SoftParticlesEnabled: 1
    - _SoftParticlesFarFadeDistance: 150
    - _SoftParticlesNearFadeDistance: 0
    - _SpecPower: 0.07
    - _SpecularAAScreenSpaceVariance: 0.131
    - _SpecularAAThreshold: 0.2
    - _SpecularAntiAliasingScreenSpaceVariance: 0.1
    - _SpecularAntiAliasingShow: 0
    - _SpecularAntiAliasingThreshold: 0.2
    - _SpecularHighlights: 1
    - _SrcBlend: 5
    - _StandardShow: 0
    - _StencilDepthPrepassRef: 16
    - _StencilDepthPrepassWriteMask: 16
    - _StencilRef: 2
    - _StencilRefMV: 128
    - _StencilWriteMask: 7
    - _StencilWriteMaskMV: 128
    - _Stiffness: 1
    - _SubsurfaceMask: 1
    - _SubsurfaceMaskMapChannel: 0
    - _SubsurfaceMaskMapShow: 0
    - _SubsurfaceMaskMapUV: 0
    - _SubsurfaceMaskMapUVLocal: 0
    - _SubsurfaceMaskUseMap: 0
    - _SupportDBuffer: 0
    - _SupportDecals: 0
    - _SurfaceType: 1
    - _TexWorldScale: 1
    - _TexWorldScaleEmissive: 1
    - _TextureNormalFilteringEnabled: 0
    - _Thickness: 1
    - _ThicknessMapChannel: 0
    - _ThicknessMapRemapInverted: 0
    - _ThicknessMapShow: 0
    - _ThicknessMapUV: 0
    - _ThicknessMapUVLocal: 0
    - _ThicknessMultiplier: 1
    - _ThicknessUseMap: 0
    - _ThreadAOScale: 0.5
    - _ThreadNormalScale: 1
    - _ThreadSmoothnessScale: 1
    - _TransmissionEnable: 1
    - _TransmissionShow: 0
    - _TransparentBackfaceEnable: 0
    - _TransparentDepthPostpassEnable: 0
    - _TransparentDepthPrepassEnable: 0
    - _TransparentSortPriority: 0
    - _Tree12Width: 10
    - _TreeAO: 1
    - _TreeAO2: 2.4
    - _TreeAOBias: 0.1
    - _TreeAOBias2: 0.35
    - _TreeDO: 7.5
    - _TreeDO2: 5
    - _TreeDOBias: 0
    - _TreeDOBias2: 0
    - _UVBase: 0
    - _UVDetail: 0
    - _UVEmissive: 0
    - _UVSec: 0
    - _UVThread: 0
    - _UseAoMap: 0
    - _UseColorMap: 0
    - _UseEmissiveMap: 0
    - _UseMetallicMap: 0
    - _UseNormalMap: 0
    - _UseOpacityMap: 0
    - _UseRoughnessMap: 0
    - _UseTreeOcclusion: 0
    - _VisibilityDistance: 50000
    - _VisibilityFalloff: 1
    - _VisibilityFalloffPower: 1
    - _VlayerRecomputePerLight: 0
    - _VlayerUseRefractedAnglesForBase: 0
    - _WindElasticityLvl0: 1
    - _WindElasticityLvl1: 1
    - _WindElasticityLvlB: 0.2
    - _WindFakeSingleObjectPivot: 0
    - _WindFlutterElasticity: 0.1
    - _WindFlutterPeriodScale: 1
    - _WindFlutterPhase: 50
    - _WindFlutterScale: 0.1
    - _WindHeightIntensity: 0.1
    - _WindHeightScale: 2
    - _WindHeightSpeed: 0.001
    - _WindInnerRadius: 0.5
    - _WindRadiusIntensity: 0.1
    - _WindRadiusSpeed: 0.001
    - _WindRangeLvl0: 2
    - _WindRangeLvl1: 0.5
    - _WindRangeLvlB: 5
    - _WindRangeRadius: 2.5
    - _ZTestDepthEqualForOpaque: 4
    - _ZTestGBuffer: 3
    - _ZTestModeDistortion: 4
    - _ZWrite: 0
    - _angle_bias: 0
    - _fade_hold_distance: 0
    - _fade_in_distance: 30
    - _fade_out_distance: 1014.55
    - _near_plane: 2
    m_Colors:
    - _AmbientOcclusionMapChannelMask: {r: 1, g: 0, b: 0, a: 0}
    - _AmbientOcclusionMapRange: {r: 0, g: 1, b: 0, a: 0}
    - _AmbientOcclusionMapRemap: {r: 0, g: 1, b: 0, a: 0}
    - _AnisotropyMapChannelMask: {r: 1, g: 0, b: 0, a: 0}
    - _AnisotropyMapRange: {r: 0, g: 1, b: 0, a: 0}
    - _AnisotropyMapRemap: {r: 0, g: 1, b: 0, a: 0}
    - _BaseColor: {r: 0.9, g: 0.9, b: 0.9, a: 1}
    - _CameraFadeParams: {r: 2, g: 0.33333334, b: 0, a: 0}
    - _CarPaint2_CTCoeffs: {r: 1, g: 1, b: 1, a: 1}
    - _CarPaint2_CTF0s: {r: 1, g: 1, b: 1, a: 1}
    - _CarPaint2_CTSpreads: {r: 1, g: 1, b: 1, a: 1}
    - _CoatExtinction: {r: 1, g: 1, b: 1, a: 1}
    - _CoatSmoothnessMapChannelMask: {r: 1, g: 0, b: 0, a: 0}
    - _CoatSmoothnessMapRange: {r: 0, g: 1, b: 0, a: 0}
    - _CoatSmoothnessMapRemap: {r: 0, g: 1, b: 0, a: 0}
    - _Color: {r: 0.67068064, g: 0.67801046, b: 0.7, a: 1}
    - _ColorAddSubDiff: {r: 0, g: 0, b: 0, a: 0}
    - _DebugAniso: {r: 1, g: 0, b: 0, a: 1000}
    - _DebugEnvLobeMask: {r: 1, g: 1, b: 1, a: 1}
    - _DebugLobeMask: {r: 1, g: 1, b: 1, a: 1}
    - _DetailMaskMapChannelMask: {r: 1, g: 0, b: 0, a: 0}
    - _DetailSmoothnessMapChannelMask: {r: 1, g: 0, b: 0, a: 0}
    - _DetailSmoothnessMapRange: {r: 0, g: 1, b: 0, a: 0}
    - _DetailSmoothnessMapRemap: {r: 0, g: 1, b: 0, a: 0}
    - _DoubleSidedConstants: {r: 1, g: 1, b: -1, a: 0}
    - _EmisColor: {r: 0.19999996, g: 0.19999996, b: 0.19999996, a: 0}
    - _EmissionColor: {r: 0.57942045, g: 0.65326816, b: 0.7242755, a: 1}
    - _EmissiveColor: {r: 0, g: 0, b: 0, a: 1}
    - _Flip: {r: 1, g: 1, b: 1, a: 1}
    - _InvPrimScale: {r: 1, g: 1, b: 0, a: 0}
    - _IridescenceMaskMapChannelMask: {r: 1, g: 0, b: 0, a: 0}
    - _IridescenceMaskMapRange: {r: 0, g: 1, b: 0, a: 0}
    - _IridescenceMaskMapRemap: {r: 0, g: 1, b: 0, a: 0}
    - _IridescenceThicknessMapChannelMask: {r: 1, g: 0, b: 0, a: 0}
    - _IridescenceThicknessMapRange: {r: 0, g: 1, b: 0, a: 0}
    - _IridescenceThicknessMapRemap: {r: 0, g: 1, b: 0, a: 0}
    - _IridescenceThicknessRemap: {r: 0, g: 1, b: 0, a: 0}
    - _LayerDirection: {r: 0, g: 1, b: 0, a: 1}
    - _MetallicMapChannelMask: {r: 1, g: 0, b: 0, a: 0}
    - _MetallicMapRange: {r: 0, g: 1, b: 0, a: 0}
    - _MetallicMapRemap: {r: 0, g: 1, b: 0, a: 0}
    - _PeeledBarkColor: {r: 1, g: 1, b: 1, a: 1}
    - _PeeledBarkColorAlt: {r: 0.9, g: 0.9, b: 1, a: 1}
    - _PeeledBarkUVRangeScale: {r: 0, g: 1, b: 2, a: 0}
    - _RendererColor: {r: 1, g: 1, b: 1, a: 1}
    - _SmoothnessAMapChannelMask: {r: 1, g: 0, b: 0, a: 0}
    - _SmoothnessAMapRange: {r: 0, g: 1, b: 0, a: 0}
    - _SmoothnessAMapRemap: {r: 0, g: 1, b: 0, a: 0}
    - _SmoothnessBMapChannelMask: {r: 1, g: 0, b: 0, a: 0}
    - _SmoothnessBMapRange: {r: 0, g: 1, b: 0, a: 0}
    - _SmoothnessBMapRemap: {r: 0, g: 1, b: 0, a: 0}
    - _SoftParticleFadeParams: {r: 0, g: 0.006666667, b: 0, a: 0}
    - _SpecColor: {r: 1, g: 1, b: 0.7688679, a: 1}
    - _SpecularColor: {r: 0.9, g: 0.9, b: 0.9, a: 1}
    - _SubsurfaceMaskMapChannelMask: {r: 1, g: 0, b: 0, a: 0}
    - _SubsurfaceMaskMapRange: {r: 0, g: 1, b: 0, a: 0}
    - _SubsurfaceMaskMapRemap: {r: 0, g: 1, b: 0, a: 0}
    - _ThicknessMapChannelMask: {r: 1, g: 0, b: 0, a: 0}
    - _ThicknessMapRange: {r: 0, g: 1, b: 0, a: 0}
    - _ThicknessMapRemap: {r: 0, g: 1, b: 0, a: 0}
    - _ThicknessRemap: {r: 0, g: 1, b: 0, a: 0}
    - _TintColor: {r: 1, g: 1, b: 1, a: 0.5}
    - _TransmittanceColor: {r: 1, g: 1, b: 1, a: 1}
    - _UVDetailsMappingMask: {r: 1, g: 0, b: 0, a: 0}
    - _UVMappingMask: {r: 1, g: 0, b: 0, a: 0}
    - _UVMappingMaskEmissive: {r: 1, g: 0, b: 0, a: 0}
    - _UVMappingMaskThread: {r: 1, g: 0, b: 0, a: 0}
    - _UvOffset: {r: 0, g: 0, b: 0, a: 0}
    - _UvTiling: {r: 1, g: 1, b: 0, a: 0}
    - _color: {r: 1, g: 1, b: 1, a: 1}
  m_BuildTextureStacks: []
